// Jest Snapshot v1, https://goo.gl/fbAQLP

exports[`<Episodes /> episode list 1`] = `
<Component
  style={
    Object {
      "paddingTop": 20,
    }
  }
>
  <Spinner
    animation="none"
    cancelable={false}
    color="white"
    overlayColor="rgba(0, 0, 0, 0.25)"
    size="large"
    textContent="Loading..."
    textStyle={
      Object {
        "color": "#FFF",
      }
    }
    visible={false}
  />
  <FlatList
    data={
      Array [
        Object {
          "air_date": "December 2, 2013",
          "characters": Array [
            "https://rickandmortyapi.com/api/character/1",
            "https://rickandmortyapi.com/api/character/2",
            "https://rickandmortyapi.com/api/character/35",
            "https://rickandmortyapi.com/api/character/38",
            "https://rickandmortyapi.com/api/character/62",
            "https://rickandmortyapi.com/api/character/92",
            "https://rickandmortyapi.com/api/character/127",
            "https://rickandmortyapi.com/api/character/144",
            "https://rickandmortyapi.com/api/character/158",
            "https://rickandmortyapi.com/api/character/175",
            "https://rickandmortyapi.com/api/character/179",
            "https://rickandmortyapi.com/api/character/181",
            "https://rickandmortyapi.com/api/character/239",
            "https://rickandmortyapi.com/api/character/249",
            "https://rickandmortyapi.com/api/character/271",
            "https://rickandmortyapi.com/api/character/338",
            "https://rickandmortyapi.com/api/character/394",
            "https://rickandmortyapi.com/api/character/395",
            "https://rickandmortyapi.com/api/character/435",
          ],
          "created": "2017-11-10T12:56:33.798Z",
          "episode": "S01E01",
          "id": 1,
          "name": "Pilot",
          "url": "https://rickandmortyapi.com/api/episode/1",
        },
        Object {
          "air_date": "December 9, 2013",
          "characters": Array [
            "https://rickandmortyapi.com/api/character/1",
            "https://rickandmortyapi.com/api/character/2",
            "https://rickandmortyapi.com/api/character/38",
            "https://rickandmortyapi.com/api/character/46",
            "https://rickandmortyapi.com/api/character/63",
            "https://rickandmortyapi.com/api/character/80",
            "https://rickandmortyapi.com/api/character/175",
            "https://rickandmortyapi.com/api/character/221",
            "https://rickandmortyapi.com/api/character/239",
            "https://rickandmortyapi.com/api/character/246",
            "https://rickandmortyapi.com/api/character/304",
            "https://rickandmortyapi.com/api/character/305",
            "https://rickandmortyapi.com/api/character/306",
            "https://rickandmortyapi.com/api/character/329",
            "https://rickandmortyapi.com/api/character/338",
            "https://rickandmortyapi.com/api/character/396",
            "https://rickandmortyapi.com/api/character/397",
            "https://rickandmortyapi.com/api/character/398",
            "https://rickandmortyapi.com/api/character/405",
          ],
          "created": "2017-11-10T12:56:33.916Z",
          "episode": "S01E02",
          "id": 2,
          "name": "Lawnmower Dog",
          "url": "https://rickandmortyapi.com/api/episode/2",
        },
      ]
    }
    disableVirtualization={false}
    horizontal={false}
    initialNumToRender={10}
    keyExtractor={[Function]}
    maxToRenderPerBatch={10}
    numColumns={1}
    onEndReached={[Function]}
    onEndReachedThreshold={2}
    onEndThreshold={0}
    renderItem={[Function]}
    scrollEventThrottle={50}
    updateCellsBatchingPeriod={50}
    windowSize={21}
  />
</Component>
`;
